%!PS-Adobe-2.0 EPSF-2.0
%%Title: /home/mathieu/.gnome-desktop/corba/orb.dia
%%Creator: Dia v0.40
%%CreationDate: Wed Aug 11 09:25:56 1999
%%For: mathieu
%%Magnification: 1.0000
%%Orientation: Portrait
%%BoundingBox: 0 0 627 372
%%Pages: 1
%%BeginSetup
%%EndSetup
%%EndComments
/cp {closepath} bind def
/c {curveto} bind def
/f {fill} bind def
/a {arc} bind def
/ef {eofill} bind def
/ex {exch} bind def
/gr {grestore} bind def
/gs {gsave} bind def
/sa {save} bind def
/rs {restore} bind def
/l {lineto} bind def
/m {moveto} bind def
/rm {rmoveto} bind def
/n {newpath} bind def
/s {stroke} bind def
/sh {show} bind def
/slc {setlinecap} bind def
/slj {setlinejoin} bind def
/slw {setlinewidth} bind def
/srgb {setrgbcolor} bind def
/rot {rotate} bind def
/sc {scale} bind def
/sd {setdash} bind def
/ff {findfont} bind def
/sf {setfont} bind def
/scf {scalefont} bind def
/sw {stringwidth pop} bind def
/tr {translate} bind def

/ellipsedict 8 dict def
ellipsedict /mtrx matrix put
/ellipse
{ ellipsedict begin
   /endangle exch def
   /startangle exch def
   /yrad exch def
   /xrad exch def
   /y exch def
   /x exch def   /savematrix mtrx currentmatrix def
   x y tr xrad yrad sc
   0 0 1 startangle endangle arc
   savematrix setmatrix
   end
} def

/colortogray {
/rgbdata exch store
rgbdata length 3 idiv
/npixls exch store
/rgbindx 0 store
0 1 npixls 1 sub {
grays exch
rgbdata rgbindx       get 20 mul
rgbdata rgbindx 1 add get 32 mul
rgbdata rgbindx 2 add get 12 mul
add add 64 idiv
put
/rgbindx rgbindx 3 add store
} for
grays 0 npixls getinterval
} bind def
/mergeprocs {
dup length
3 -1 roll
dup
length
dup
5 1 roll
3 -1 roll
add
array cvx
dup
3 -1 roll
0 exch
putinterval
dup
4 2 roll
putinterval
} bind def
/colorimage {
pop pop
{colortogray} mergeprocs
image
} bind def

28.346000 -28.346000 scale
-0.950000 -14.050000 translate
%%EndProlog


0.064914 0.036799 1.000000 srgb
n 1.000000 8.000000 m 1.000000 14.000000 l 23.000000 14.000000 l 23.000000 8.000000 l f
0.100000 slw
[] 0 sd
0 slj
0.000000 0.000000 0.000000 srgb
n 1.000000 8.000000 m 1.000000 14.000000 l 23.000000 14.000000 l 23.000000 8.000000 l cp s
1.000000 0.028509 0.000000 srgb
n 2.000000 1.000000 m 2.000000 7.000000 l 10.000000 7.000000 l 10.000000 1.000000 l f
0.100000 slw
[] 0 sd
0 slj
0.000000 0.000000 0.000000 srgb
n 2.000000 1.000000 m 2.000000 7.000000 l 10.000000 7.000000 l 10.000000 1.000000 l cp s
1.000000 0.028509 0.000000 srgb
n 14.000000 1.000000 m 14.000000 7.000000 l 22.000000 7.000000 l 22.000000 1.000000 l f
0.100000 slw
[] 0 sd
0 slj
0.000000 0.000000 0.000000 srgb
n 14.000000 1.000000 m 14.000000 7.000000 l 22.000000 7.000000 l 22.000000 1.000000 l cp s
1.000000 1.000000 1.000000 srgb
n 4.000000 2.000000 m 4.000000 4.050000 l 7.950000 4.050000 l 7.950000 2.000000 l f
0.100000 slw
[] 0 sd
0 slj
0.000000 0.000000 0.000000 srgb
n 4.000000 2.000000 m 4.000000 4.050000 l 7.950000 4.050000 l 7.950000 2.000000 l cp s
1.000000 1.000000 1.000000 srgb
n 16.000000 2.000000 m 16.000000 4.000000 l 20.050000 4.000000 l 20.050000 2.000000 l f
0.100000 slw
[] 0 sd
0 slj
0.000000 0.000000 0.000000 srgb
n 16.000000 2.000000 m 16.000000 4.000000 l 20.050000 4.000000 l 20.050000 2.000000 l cp s
1.000000 1.000000 1.000000 srgb
n 2.000000 9.000000 m 2.000000 12.000000 l 22.000000 12.000000 l 22.000000 9.000000 l f
0.100000 slw
[] 0 sd
0 slj
0.000000 0.000000 0.000000 srgb
n 2.000000 9.000000 m 2.000000 12.000000 l 22.000000 12.000000 l 22.000000 9.000000 l cp s
1.000000 1.000000 1.000000 srgb
n 3.000000 4.000000 m 3.000000 9.000000 l 9.000000 9.000000 l 9.000000 4.000000 l f
0.100000 slw
[] 0 sd
0 slj
0.000000 0.000000 0.000000 srgb
n 3.000000 4.000000 m 3.000000 9.000000 l 9.000000 9.000000 l 9.000000 4.000000 l cp s
1.000000 1.000000 1.000000 srgb
n 15.000000 4.000000 m 15.000000 9.000000 l 21.000000 9.000000 l 21.000000 4.000000 l f
0.100000 slw
[] 0 sd
0 slj
0.000000 0.000000 0.000000 srgb
n 15.000000 4.000000 m 15.000000 9.000000 l 21.000000 9.000000 l 21.000000 4.000000 l cp s
/Courier ff 1.000000 scf sf
0.000000 0.000000 0.000000 srgb
(Client) dup sw 2 div 6.000000 ex sub 3.000000 m gs 1 -1 sc sh gr
/Courier ff 1.000000 scf sf
0.000000 0.000000 0.000000 srgb
(Object) dup sw 2 div 18.000000 ex sub 3.000000 m gs 1 -1 sc sh gr
/Courier ff 1.000000 scf sf
0.000000 0.000000 0.000000 srgb
(ORB) dup sw 2 div 12.000000 ex sub 11.000000 m gs 1 -1 sc sh gr
/Courier ff 1.000000 scf sf
0.000000 0.000000 0.000000 srgb
(Stub) dup sw 2 div 6.000000 ex sub 6.000000 m gs 1 -1 sc sh gr
/Courier ff 1.000000 scf sf
0.000000 0.000000 0.000000 srgb
(Skeleton) dup sw 2 div 18.000000 ex sub 6.000000 m gs 1 -1 sc sh gr
showpage
