%!PS-Adobe-2.0 EPSF-2.0
%%Title: /home/mathieu/.gnome-desktop/cvs/libs/bonobo-doc/image/poa-register.dia
%%Creator: Dia v0.82
%%CreationDate: Sun Jan  2 01:41:45 2000
%%For: a user
%%Magnification: 1.0000
%%Orientation: Portrait
%%BoundingBox: 0 0 728 343
%%Pages: 1
%%BeginSetup
%%EndSetup
%%EndComments
[ /.notdef /.notdef /.notdef /.notdef /.notdef /.notdef /.notdef /.notdef /.notdef /.notdef
/.notdef /.notdef /.notdef /.notdef /.notdef /.notdef /.notdef /.notdef /.notdef /.notdef
/.notdef /.notdef /.notdef /.notdef /.notdef /.notdef /.notdef /.notdef /.notdef /.notdef
/.notdef /.notdef /space /exclam /quotedbl /numbersign /dollar /percent /ampersand /quoteright
/parenleft /parenright /asterisk /plus /comma /hyphen /period /slash /zero /one
/two /three /four /five /six /seven /eight /nine /colon /semicolon
/less /equal /greater /question /at /A /B /C /D /E
/F /G /H /I /J /K /L /M /N /O
/P /Q /R /S /T /U /V /W /X /Y
/Z /bracketleft /backslash /bracketright /asciicircum /underscore /quoteleft /a /b /c
/d /e /f /g /h /i /j /k /l /m
/n /o /p /q /r /s /t /u /v /w
/x /y /z /braceleft /bar /braceright /asciitilde /.notdef /.notdef /.notdef
/.notdef /.notdef /.notdef /.notdef /.notdef /.notdef /.notdef /.notdef /.notdef /.notdef
/.notdef /.notdef /.notdef /.notdef /.notdef /.notdef /.notdef /.notdef /.notdef /.notdef
/.notdef /.notdef /.notdef /.notdef /.notdef /.notdef /.notdef /.notdef /.notdef /.notdef
/space /exclamdown /cent /sterling /currency /yen /brokenbar /section /dieresis /copyright
/ordfeminine /guillemotleft /logicalnot /hyphen /registered /macron /degree /plusminus /twosuperior /threesuperior
/acute /mu /paragraph /periodcentered /cedilla /onesuperior /ordmasculine /guillemotright /onequarter /onehalf
/threequarters /questiondown /Agrave /Aacute /Acircumflex /Atilde /Adieresis /Aring /AE /Ccedilla
/Egrave /Eacute /Ecircumflex /Edieresis /Igrave /Iacute /Icircumflex /Idieresis /Eth /Ntilde
/Ograve /Oacute /Ocircumflex /Otilde /Odieresis /multiply /Oslash /Ugrave /Uacute /Ucircumflex
/Udieresis /Yacute /Thorn /germandbls /agrave /aacute /acircumflex /atilde /adieresis /aring
/ae /ccedilla /egrave /eacute /ecircumflex /edieresis /igrave /iacute /icircumflex /idieresis
/eth /ntilde /ograve /oacute /ocircumflex /otilde /odieresis /divide /oslash /ugrave
/uacute /ucircumflex /udieresis /yacute /thorn /ydieresis] /isolatin1encoding exch def
/Times-Roman-latin1
    /Times-Roman findfont
    dup length dict begin
	{1 index /FID ne {def} {pop pop} ifelse} forall
	/Encoding isolatin1encoding def
    currentdict end
definefont pop
/Times-Italic-latin1
    /Times-Italic findfont
    dup length dict begin
	{1 index /FID ne {def} {pop pop} ifelse} forall
	/Encoding isolatin1encoding def
    currentdict end
definefont pop
/Times-Bold-latin1
    /Times-Bold findfont
    dup length dict begin
	{1 index /FID ne {def} {pop pop} ifelse} forall
	/Encoding isolatin1encoding def
    currentdict end
definefont pop
/Times-BoldItalic-latin1
    /Times-BoldItalic findfont
    dup length dict begin
	{1 index /FID ne {def} {pop pop} ifelse} forall
	/Encoding isolatin1encoding def
    currentdict end
definefont pop
/AvantGarde-Book-latin1
    /AvantGarde-Book findfont
    dup length dict begin
	{1 index /FID ne {def} {pop pop} ifelse} forall
	/Encoding isolatin1encoding def
    currentdict end
definefont pop
/AvantGarde-BookOblique-latin1
    /AvantGarde-BookOblique findfont
    dup length dict begin
	{1 index /FID ne {def} {pop pop} ifelse} forall
	/Encoding isolatin1encoding def
    currentdict end
definefont pop
/AvantGarde-Demi-latin1
    /AvantGarde-Demi findfont
    dup length dict begin
	{1 index /FID ne {def} {pop pop} ifelse} forall
	/Encoding isolatin1encoding def
    currentdict end
definefont pop
/AvantGarde-DemiOblique-latin1
    /AvantGarde-DemiOblique findfont
    dup length dict begin
	{1 index /FID ne {def} {pop pop} ifelse} forall
	/Encoding isolatin1encoding def
    currentdict end
definefont pop
/Bookman-Light-latin1
    /Bookman-Light findfont
    dup length dict begin
	{1 index /FID ne {def} {pop pop} ifelse} forall
	/Encoding isolatin1encoding def
    currentdict end
definefont pop
/Bookman-LightItalic-latin1
    /Bookman-LightItalic findfont
    dup length dict begin
	{1 index /FID ne {def} {pop pop} ifelse} forall
	/Encoding isolatin1encoding def
    currentdict end
definefont pop
/Bookman-Demi-latin1
    /Bookman-Demi findfont
    dup length dict begin
	{1 index /FID ne {def} {pop pop} ifelse} forall
	/Encoding isolatin1encoding def
    currentdict end
definefont pop
/Bookman-DemiItalic-latin1
    /Bookman-DemiItalic findfont
    dup length dict begin
	{1 index /FID ne {def} {pop pop} ifelse} forall
	/Encoding isolatin1encoding def
    currentdict end
definefont pop
/Courier-latin1
    /Courier findfont
    dup length dict begin
	{1 index /FID ne {def} {pop pop} ifelse} forall
	/Encoding isolatin1encoding def
    currentdict end
definefont pop
/Courier-Oblique-latin1
    /Courier-Oblique findfont
    dup length dict begin
	{1 index /FID ne {def} {pop pop} ifelse} forall
	/Encoding isolatin1encoding def
    currentdict end
definefont pop
/Courier-Bold-latin1
    /Courier-Bold findfont
    dup length dict begin
	{1 index /FID ne {def} {pop pop} ifelse} forall
	/Encoding isolatin1encoding def
    currentdict end
definefont pop
/Courier-BoldOblique-latin1
    /Courier-BoldOblique findfont
    dup length dict begin
	{1 index /FID ne {def} {pop pop} ifelse} forall
	/Encoding isolatin1encoding def
    currentdict end
definefont pop
/Helvetica-latin1
    /Helvetica findfont
    dup length dict begin
	{1 index /FID ne {def} {pop pop} ifelse} forall
	/Encoding isolatin1encoding def
    currentdict end
definefont pop
/Helvetica-Oblique-latin1
    /Helvetica-Oblique findfont
    dup length dict begin
	{1 index /FID ne {def} {pop pop} ifelse} forall
	/Encoding isolatin1encoding def
    currentdict end
definefont pop
/Helvetica-Bold-latin1
    /Helvetica-Bold findfont
    dup length dict begin
	{1 index /FID ne {def} {pop pop} ifelse} forall
	/Encoding isolatin1encoding def
    currentdict end
definefont pop
/Helvetica-BoldOblique-latin1
    /Helvetica-BoldOblique findfont
    dup length dict begin
	{1 index /FID ne {def} {pop pop} ifelse} forall
	/Encoding isolatin1encoding def
    currentdict end
definefont pop
/Helvetica-Narrow-latin1
    /Helvetica-Narrow findfont
    dup length dict begin
	{1 index /FID ne {def} {pop pop} ifelse} forall
	/Encoding isolatin1encoding def
    currentdict end
definefont pop
/Helvetica-Narrow-Oblique-latin1
    /Helvetica-Narrow-Oblique findfont
    dup length dict begin
	{1 index /FID ne {def} {pop pop} ifelse} forall
	/Encoding isolatin1encoding def
    currentdict end
definefont pop
/Helvetica-Narrow-Bold-latin1
    /Helvetica-Narrow-Bold findfont
    dup length dict begin
	{1 index /FID ne {def} {pop pop} ifelse} forall
	/Encoding isolatin1encoding def
    currentdict end
definefont pop
/Helvetica-Narrow-BoldOblique-latin1
    /Helvetica-Narrow-BoldOblique findfont
    dup length dict begin
	{1 index /FID ne {def} {pop pop} ifelse} forall
	/Encoding isolatin1encoding def
    currentdict end
definefont pop
/NewCenturySchoolbook-Roman-latin1
    /NewCenturySchoolbook-Roman findfont
    dup length dict begin
	{1 index /FID ne {def} {pop pop} ifelse} forall
	/Encoding isolatin1encoding def
    currentdict end
definefont pop
/NewCenturySchoolbook-Italic-latin1
    /NewCenturySchoolbook-Italic findfont
    dup length dict begin
	{1 index /FID ne {def} {pop pop} ifelse} forall
	/Encoding isolatin1encoding def
    currentdict end
definefont pop
/NewCenturySchoolbook-Bold-latin1
    /NewCenturySchoolbook-Bold findfont
    dup length dict begin
	{1 index /FID ne {def} {pop pop} ifelse} forall
	/Encoding isolatin1encoding def
    currentdict end
definefont pop
/NewCenturySchoolbook-BoldItalic-latin1
    /NewCenturySchoolbook-BoldItalic findfont
    dup length dict begin
	{1 index /FID ne {def} {pop pop} ifelse} forall
	/Encoding isolatin1encoding def
    currentdict end
definefont pop
/Palatino-Roman-latin1
    /Palatino-Roman findfont
    dup length dict begin
	{1 index /FID ne {def} {pop pop} ifelse} forall
	/Encoding isolatin1encoding def
    currentdict end
definefont pop
/Palatino-Italic-latin1
    /Palatino-Italic findfont
    dup length dict begin
	{1 index /FID ne {def} {pop pop} ifelse} forall
	/Encoding isolatin1encoding def
    currentdict end
definefont pop
/Palatino-Bold-latin1
    /Palatino-Bold findfont
    dup length dict begin
	{1 index /FID ne {def} {pop pop} ifelse} forall
	/Encoding isolatin1encoding def
    currentdict end
definefont pop
/Palatino-BoldItalic-latin1
    /Palatino-BoldItalic findfont
    dup length dict begin
	{1 index /FID ne {def} {pop pop} ifelse} forall
	/Encoding isolatin1encoding def
    currentdict end
definefont pop
/Symbol-latin1
    /Symbol findfont
    dup length dict begin
	{1 index /FID ne {def} {pop pop} ifelse} forall
	/Encoding isolatin1encoding def
    currentdict end
definefont pop
/ZapfChancery-MediumItalic-latin1
    /ZapfChancery-MediumItalic findfont
    dup length dict begin
	{1 index /FID ne {def} {pop pop} ifelse} forall
	/Encoding isolatin1encoding def
    currentdict end
definefont pop
/ZapfDingbats-latin1
    /ZapfDingbats findfont
    dup length dict begin
	{1 index /FID ne {def} {pop pop} ifelse} forall
	/Encoding isolatin1encoding def
    currentdict end
definefont pop
/cp {closepath} bind def
/c {curveto} bind def
/f {fill} bind def
/a {arc} bind def
/ef {eofill} bind def
/ex {exch} bind def
/gr {grestore} bind def
/gs {gsave} bind def
/sa {save} bind def
/rs {restore} bind def
/l {lineto} bind def
/m {moveto} bind def
/rm {rmoveto} bind def
/n {newpath} bind def
/s {stroke} bind def
/sh {show} bind def
/slc {setlinecap} bind def
/slj {setlinejoin} bind def
/slw {setlinewidth} bind def
/srgb {setrgbcolor} bind def
/rot {rotate} bind def
/sc {scale} bind def
/sd {setdash} bind def
/ff {findfont} bind def
/sf {setfont} bind def
/scf {scalefont} bind def
/sw {stringwidth pop} bind def
/tr {translate} bind def

/ellipsedict 8 dict def
ellipsedict /mtrx matrix put
/ellipse
{ ellipsedict begin
   /endangle exch def
   /startangle exch def
   /yrad exch def
   /xrad exch def
   /y exch def
   /x exch def   /savematrix mtrx currentmatrix def
   x y tr xrad yrad sc
   0 0 1 startangle endangle arc
   savematrix setmatrix
   end
} def

/colortogray {
/rgbdata exch store
rgbdata length 3 idiv
/npixls exch store
/rgbindx 0 store
0 1 npixls 1 sub {
grays exch
rgbdata rgbindx       get 20 mul
rgbdata rgbindx 1 add get 32 mul
rgbdata rgbindx 2 add get 12 mul
add add 64 idiv
put
/rgbindx rgbindx 3 add store
} for
grays 0 npixls getinterval
} bind def
/mergeprocs {
dup length
3 -1 roll
dup
length
dup
5 1 roll
3 -1 roll
add
array cvx
dup
3 -1 roll
0 exch
putinterval
dup
4 2 roll
putinterval
} bind def
/colorimage {
pop pop
{colortogray} mergeprocs
image
} bind def

28.346000 -28.346000 scale
11.400000 -5.200000 translate
%%EndProlog


1.000000 1.000000 1.000000 srgb
n -11.350000 -6.850000 m -11.350000 5.150000 l -1.350000 5.150000 l -1.350000 -6.850000 l f
0.100000 slw
[] 0 sd
[] 0 sd
0 slj
0.000000 0.000000 0.000000 srgb
n -11.350000 -6.850000 m -11.350000 5.150000 l -1.350000 5.150000 l -1.350000 -6.850000 l cp s
1.000000 1.000000 1.000000 srgb
n -3.900000 1.000000 m -3.900000 2.800000 l -2.200000 2.800000 l -2.200000 1.000000 l f
0.100000 slw
[] 0 sd
[] 0 sd
0 slj
0.000000 0.000000 0.000000 srgb
n -3.900000 1.000000 m -3.900000 2.800000 l -2.200000 2.800000 l -2.200000 1.000000 l cp s
1.000000 1.000000 1.000000 srgb
n -10.050000 -5.650000 m -10.050000 -1.650000 l -7.050000 -1.650000 l -7.050000 -5.650000 l f
0.100000 slw
[] 0 sd
[] 0 sd
0 slj
0.000000 0.000000 0.000000 srgb
n -10.050000 -5.650000 m -10.050000 -1.650000 l -7.050000 -1.650000 l -7.050000 -5.650000 l cp s
1.000000 1.000000 1.000000 srgb
n -4.450000 -5.450000 m -4.450000 -3.650000 l -2.450000 -3.650000 l -2.450000 -5.450000 l f
0.100000 slw
[] 0 sd
[] 0 sd
0 slj
0.000000 0.000000 0.000000 srgb
n -4.450000 -5.450000 m -4.450000 -3.650000 l -2.450000 -3.650000 l -2.450000 -5.450000 l cp s
/Times-Roman-latin1 ff 1.000000 scf sf
0.000000 0.000000 0.000000 srgb
(Server) -9.750000 4.250000 m gs 1 -1 sc sh gr
/Times-Roman-latin1 ff 1.000000 scf sf
0.000000 0.000000 0.000000 srgb
(POA) -9.800000 -0.500000 m gs 1 -1 sc sh gr
/Times-Roman-latin1 ff 1.000000 scf sf
0.000000 0.000000 0.000000 srgb
(Servant) -4.750000 4.050000 m gs 1 -1 sc sh gr
/Times-Roman-latin1 ff 1.000000 scf sf
0.000000 0.000000 0.000000 srgb
(Servant) -5.050000 -2.750000 m gs 1 -1 sc sh gr
0.100000 slw
0 slc
[] 0 sd
0.000000 0.000000 0.000000 srgb
n -7.300000 -0.900000 m -4.300000 2.300000 l s
0 slj
0.000000 0.000000 0.000000 srgb
n -6.570463 -0.487356 m -7.300000 -0.900000 l -6.935231 -0.145385 l f
/Helvetica-latin1 ff 0.800000 scf sf
0.100000 slw
0 slc
[] 0 sd
0.000000 0.000000 0.000000 srgb
n -3.500000 0.800000 m -6.400000 -2.000000 l s
0 slj
0.000000 0.000000 0.000000 srgb
n -4.249170 0.424175 m -3.500000 0.800000 l -3.901873 0.064474 l f
/Helvetica-latin1 ff 0.800000 scf sf
0.100000 slw
0 slc
[] 0 sd
0.000000 0.000000 0.000000 srgb
n 2.300000 -3.500000 m -1.700000 1.500000 l s
0 slj
0.000000 0.000000 0.000000 srgb
n 1.995461 -2.719131 m 2.300000 -3.500000 l 1.605027 -3.031479 l f
/Helvetica-latin1 ff 0.800000 scf sf
0.100000 slw
0 slc
[] 0 sd
0.000000 0.000000 0.000000 srgb
n 6.100000 1.800000 m -1.700000 2.300000 l s
0 slj
0.000000 0.000000 0.000000 srgb
n 5.317631 2.100665 m 6.100000 1.800000 l 5.285646 1.601689 l f
/Helvetica-latin1 ff 0.800000 scf sf
/Times-Roman-latin1 ff 1.000000 scf sf
0.000000 0.000000 0.000000 srgb
(IOR string) 0.500000 -3.700000 m gs 1 -1 sc sh gr
1.000000 1.000000 1.000000 srgb
n 6.400000 0.000000 m 6.400000 3.400000 l 14.200000 3.400000 l 14.200000 0.000000 l f
0.100000 slw
[] 0 sd
[] 0 sd
0 slj
0.000000 0.000000 0.000000 srgb
n 6.400000 0.000000 m 6.400000 3.400000 l 14.200000 3.400000 l 14.200000 0.000000 l cp s
/Times-Roman-latin1 ff 1.000000 scf sf
0.000000 0.000000 0.000000 srgb
(Naming Service) 7.200000 2.000000 m gs 1 -1 sc sh gr
/Times-Roman-latin1 ff 1.000000 scf sf
0.000000 0.000000 0.000000 srgb
(\(1\)) -6.600000 1.500000 m gs 1 -1 sc sh gr
/Times-Roman-latin1 ff 1.000000 scf sf
0.000000 0.000000 0.000000 srgb
(\(2\)) -5.200000 -1.100000 m gs 1 -1 sc sh gr
/Times-Roman-latin1 ff 1.000000 scf sf
0.000000 0.000000 0.000000 srgb
(\(3\)) 1.400000 -1.200000 m gs 1 -1 sc sh gr
/Times-Roman-latin1 ff 1.000000 scf sf
0.000000 0.000000 0.000000 srgb
(\(3\)) 1.600000 3.000000 m gs 1 -1 sc sh gr
showpage
