%!PS-Adobe-2.0 EPSF-2.0
%%Title: /home/mathieu/.gnome-desktop/corba/image/poa-request-2.dia
%%Creator: Dia v0.40
%%CreationDate: Sat Aug 14 22:40:37 1999
%%For: mathieu
%%Magnification: 1.0000
%%Orientation: Portrait
%%BoundingBox: 0 0 610 352
%%Pages: 1
%%BeginSetup
%%EndSetup
%%EndComments
/cp {closepath} bind def
/c {curveto} bind def
/f {fill} bind def
/a {arc} bind def
/ef {eofill} bind def
/ex {exch} bind def
/gr {grestore} bind def
/gs {gsave} bind def
/sa {save} bind def
/rs {restore} bind def
/l {lineto} bind def
/m {moveto} bind def
/rm {rmoveto} bind def
/n {newpath} bind def
/s {stroke} bind def
/sh {show} bind def
/slc {setlinecap} bind def
/slj {setlinejoin} bind def
/slw {setlinewidth} bind def
/srgb {setrgbcolor} bind def
/rot {rotate} bind def
/sc {scale} bind def
/sd {setdash} bind def
/ff {findfont} bind def
/sf {setfont} bind def
/scf {scalefont} bind def
/sw {stringwidth pop} bind def
/tr {translate} bind def

/ellipsedict 8 dict def
ellipsedict /mtrx matrix put
/ellipse
{ ellipsedict begin
   /endangle exch def
   /startangle exch def
   /yrad exch def
   /xrad exch def
   /y exch def
   /x exch def   /savematrix mtrx currentmatrix def
   x y tr xrad yrad sc
   0 0 1 startangle endangle arc
   savematrix setmatrix
   end
} def

/colortogray {
/rgbdata exch store
rgbdata length 3 idiv
/npixls exch store
/rgbindx 0 store
0 1 npixls 1 sub {
grays exch
rgbdata rgbindx       get 20 mul
rgbdata rgbindx 1 add get 32 mul
rgbdata rgbindx 2 add get 12 mul
add add 64 idiv
put
/rgbindx rgbindx 3 add store
} for
grays 0 npixls getinterval
} bind def
/mergeprocs {
dup length
3 -1 roll
dup
length
dup
5 1 roll
3 -1 roll
add
array cvx
dup
3 -1 roll
0 exch
putinterval
dup
4 2 roll
putinterval
} bind def
/colorimage {
pop pop
{colortogray} mergeprocs
image
} bind def

28.346000 -28.346000 scale
12.300000 -3.200000 translate
%%EndProlog


1.000000 1.000000 1.000000 srgb
n -0.850000 -9.150000 m -0.850000 2.850000 l 9.150000 2.850000 l 9.150000 -9.150000 l f
0.100000 slw
[] 0 sd
0 slj
0.000000 0.000000 0.000000 srgb
n -0.850000 -9.150000 m -0.850000 2.850000 l 9.150000 2.850000 l 9.150000 -9.150000 l cp s
1.000000 1.000000 1.000000 srgb
n 6.400000 -1.200000 m 6.400000 0.600000 l 8.100000 0.600000 l 8.100000 -1.200000 l f
0.100000 slw
[] 0 sd
0 slj
0.000000 0.000000 0.000000 srgb
n 6.400000 -1.200000 m 6.400000 0.600000 l 8.100000 0.600000 l 8.100000 -1.200000 l cp s
1.000000 1.000000 1.000000 srgb
n 0.250000 -7.850000 m 0.250000 -3.850000 l 3.250000 -3.850000 l 3.250000 -7.850000 l f
0.100000 slw
[] 0 sd
0 slj
0.000000 0.000000 0.000000 srgb
n 0.250000 -7.850000 m 0.250000 -3.850000 l 3.250000 -3.850000 l 3.250000 -7.850000 l cp s
1.000000 1.000000 1.000000 srgb
n 5.850000 -7.650000 m 5.850000 -5.850000 l 7.850000 -5.850000 l 7.850000 -7.650000 l f
0.100000 slw
[] 0 sd
0 slj
0.000000 0.000000 0.000000 srgb
n 5.850000 -7.650000 m 5.850000 -5.850000 l 7.850000 -5.850000 l 7.850000 -7.650000 l cp s
/Times-Roman ff 1.000000 scf sf
0.000000 0.000000 0.000000 srgb
(Server) 0.550000 2.050000 m gs 1 -1 sc sh gr
/Times-Roman ff 1.000000 scf sf
0.000000 0.000000 0.000000 srgb
(POA) 0.500000 -2.700000 m gs 1 -1 sc sh gr
/Times-Roman ff 1.000000 scf sf
0.000000 0.000000 0.000000 srgb
(Servant) 5.550000 1.850000 m gs 1 -1 sc sh gr
/Times-Roman ff 1.000000 scf sf
0.000000 0.000000 0.000000 srgb
(Servant) 5.250000 -4.950000 m gs 1 -1 sc sh gr
0.100000 slw
0 slc
[] 0 sd
0.000000 0.000000 0.000000 srgb
n 1.300000 -2.400000 m 1.300000 1.200000 l s
0 slj
0.000000 0.000000 0.000000 srgb
n 1.550000 -1.600000 m 1.300000 -2.400000 l 1.050000 -1.600000 l f
/Courier ff 0.800000 scf sf
0.100000 slw
0 slc
[] 0 sd
0.000000 0.000000 0.000000 srgb
n 6.200000 -0.600000 m 3.600000 -4.500000 l s
0 slj
0.000000 0.000000 0.000000 srgb
n 5.548227 -1.126965 m 6.200000 -0.600000 l 5.964252 -1.404315 l f
/Courier ff 0.800000 scf sf
1.000000 1.000000 1.000000 srgb
n -12.250000 0.250000 m -12.250000 3.150000 l -5.350000 3.150000 l -5.350000 0.250000 l f
0.100000 slw
[] 0 sd
0 slj
0.000000 0.000000 0.000000 srgb
n -12.250000 0.250000 m -12.250000 3.150000 l -5.350000 3.150000 l -5.350000 0.250000 l cp s
/Times-Roman ff 1.000000 scf sf
0.000000 0.000000 0.000000 srgb
(ORB) -10.250000 1.350000 m gs 1 -1 sc sh gr
/Times-Roman ff 1.000000 scf sf
0.000000 0.000000 0.000000 srgb
(\(1\)) -3.800000 1.400000 m gs 1 -1 sc sh gr
0.100000 slw
0 slc
[] 0 sd
0.000000 0.000000 0.000000 srgb
n 0.400000 1.800000 m -4.900000 1.800000 l s
0 slj
0.000000 0.000000 0.000000 srgb
n -0.400000 2.050000 m 0.400000 1.800000 l -0.400000 1.550000 l f
/Courier ff 0.800000 scf sf
/Times-Roman ff 1.000000 scf sf
0.000000 0.000000 0.000000 srgb
(\(2\)) 1.600000 -0.300000 m gs 1 -1 sc sh gr
/Times-Roman ff 1.000000 scf sf
0.000000 0.000000 0.000000 srgb
(\(3\)) 5.000000 -2.900000 m gs 1 -1 sc sh gr
showpage
