%!PS-Adobe-2.0 EPSF-2.0
%%Title: /home/mathieu/bonobo-doc/image/relations.dia
%%Creator: Dia v0.41
%%CreationDate: Sat Sep 25 16:32:36 1999
%%For: a user
%%Magnification: 1.0000
%%Orientation: Portrait
%%BoundingBox: 0 0 1704 882
%%Pages: 1
%%BeginSetup
%%EndSetup
%%EndComments
[ /.notdef /.notdef /.notdef /.notdef /.notdef /.notdef /.notdef /.notdef /.notdef /.notdef
/.notdef /.notdef /.notdef /.notdef /.notdef /.notdef /.notdef /.notdef /.notdef /.notdef
/.notdef /.notdef /.notdef /.notdef /.notdef /.notdef /.notdef /.notdef /.notdef /.notdef
/.notdef /.notdef /space /exclam /quotedbl /numbersign /dollar /percent /ampersand /quoteright
/parenleft /parenright /asterisk /plus /comma /hyphen /period /slash /zero /one
/two /three /four /five /six /seven /eight /nine /colon /semicolon
/less /equal /greater /question /at /A /B /C /D /E
/F /G /H /I /J /K /L /M /N /O
/P /Q /R /S /T /U /V /W /X /Y
/Z /bracketleft /backslash /bracketright /asciicircum /underscore /quoteleft /a /b /c
/d /e /f /g /h /i /j /k /l /m
/n /o /p /q /r /s /t /u /v /w
/x /y /z /braceleft /bar /braceright /asciitilde /.notdef /.notdef /.notdef
/.notdef /.notdef /.notdef /.notdef /.notdef /.notdef /.notdef /.notdef /.notdef /.notdef
/.notdef /.notdef /.notdef /.notdef /.notdef /.notdef /.notdef /.notdef /.notdef /.notdef
/.notdef /.notdef /.notdef /.notdef /.notdef /.notdef /.notdef /.notdef /.notdef /.notdef
/space /exclamdown /cent /sterling /currency /yen /brokenbar /section /dieresis /copyright
/ordfeminine /guillemotleft /logicalnot /hyphen /registered /macron /degree /plusminus /twosuperior /threesuperior
/acute /mu /paragraph /periodcentered /cedilla /onesuperior /ordmasculine /guillemotright /onequarter /onehalf
/threequarters /questiondown /Agrave /Aacute /Acircumflex /Atilde /Adieresis /Aring /AE /Ccedilla
/Egrave /Eacute /Ecircumflex /Edieresis /Igrave /Iacute /Icircumflex /Idieresis /Eth /Ntilde
/Ograve /Oacute /Ocircumflex /Otilde /Odieresis /multiply /Oslash /Ugrave /Uacute /Ucircumflex
/Udieresis /Yacute /Thorn /germandbls /agrave /aacute /acircumflex /atilde /adieresis /aring
/ae /ccedilla /egrave /eacute /ecircumflex /edieresis /igrave /iacute /icircumflex /idieresis
/eth /ntilde /ograve /oacute /ocircumflex /otilde /odieresis /divide /oslash /ugrave
/uacute /ucircumflex /udieresis /yacute /thorn /ydieresis] /isolatin1encoding exch def
/Times-Roman-latin1
    /Times-Roman findfont
    dup length dict begin
	{1 index /FID ne {def} {pop pop} ifelse} forall
	/Encoding isolatin1encoding def
    currentdict end
definefont pop
/Times-Italic-latin1
    /Times-Italic findfont
    dup length dict begin
	{1 index /FID ne {def} {pop pop} ifelse} forall
	/Encoding isolatin1encoding def
    currentdict end
definefont pop
/Times-Bold-latin1
    /Times-Bold findfont
    dup length dict begin
	{1 index /FID ne {def} {pop pop} ifelse} forall
	/Encoding isolatin1encoding def
    currentdict end
definefont pop
/Times-BoldItalic-latin1
    /Times-BoldItalic findfont
    dup length dict begin
	{1 index /FID ne {def} {pop pop} ifelse} forall
	/Encoding isolatin1encoding def
    currentdict end
definefont pop
/AvantGarde-Book-latin1
    /AvantGarde-Book findfont
    dup length dict begin
	{1 index /FID ne {def} {pop pop} ifelse} forall
	/Encoding isolatin1encoding def
    currentdict end
definefont pop
/AvantGarde-BookOblique-latin1
    /AvantGarde-BookOblique findfont
    dup length dict begin
	{1 index /FID ne {def} {pop pop} ifelse} forall
	/Encoding isolatin1encoding def
    currentdict end
definefont pop
/AvantGarde-Demi-latin1
    /AvantGarde-Demi findfont
    dup length dict begin
	{1 index /FID ne {def} {pop pop} ifelse} forall
	/Encoding isolatin1encoding def
    currentdict end
definefont pop
/AvantGarde-DemiOblique-latin1
    /AvantGarde-DemiOblique findfont
    dup length dict begin
	{1 index /FID ne {def} {pop pop} ifelse} forall
	/Encoding isolatin1encoding def
    currentdict end
definefont pop
/Bookman-Light-latin1
    /Bookman-Light findfont
    dup length dict begin
	{1 index /FID ne {def} {pop pop} ifelse} forall
	/Encoding isolatin1encoding def
    currentdict end
definefont pop
/Bookman-LightItalic-latin1
    /Bookman-LightItalic findfont
    dup length dict begin
	{1 index /FID ne {def} {pop pop} ifelse} forall
	/Encoding isolatin1encoding def
    currentdict end
definefont pop
/Bookman-Demi-latin1
    /Bookman-Demi findfont
    dup length dict begin
	{1 index /FID ne {def} {pop pop} ifelse} forall
	/Encoding isolatin1encoding def
    currentdict end
definefont pop
/Bookman-DemiItalic-latin1
    /Bookman-DemiItalic findfont
    dup length dict begin
	{1 index /FID ne {def} {pop pop} ifelse} forall
	/Encoding isolatin1encoding def
    currentdict end
definefont pop
/Courier-latin1
    /Courier findfont
    dup length dict begin
	{1 index /FID ne {def} {pop pop} ifelse} forall
	/Encoding isolatin1encoding def
    currentdict end
definefont pop
/Courier-Oblique-latin1
    /Courier-Oblique findfont
    dup length dict begin
	{1 index /FID ne {def} {pop pop} ifelse} forall
	/Encoding isolatin1encoding def
    currentdict end
definefont pop
/Courier-Bold-latin1
    /Courier-Bold findfont
    dup length dict begin
	{1 index /FID ne {def} {pop pop} ifelse} forall
	/Encoding isolatin1encoding def
    currentdict end
definefont pop
/Courier-BoldOblique-latin1
    /Courier-BoldOblique findfont
    dup length dict begin
	{1 index /FID ne {def} {pop pop} ifelse} forall
	/Encoding isolatin1encoding def
    currentdict end
definefont pop
/Helvetica-latin1
    /Helvetica findfont
    dup length dict begin
	{1 index /FID ne {def} {pop pop} ifelse} forall
	/Encoding isolatin1encoding def
    currentdict end
definefont pop
/Helvetica-Oblique-latin1
    /Helvetica-Oblique findfont
    dup length dict begin
	{1 index /FID ne {def} {pop pop} ifelse} forall
	/Encoding isolatin1encoding def
    currentdict end
definefont pop
/Helvetica-Bold-latin1
    /Helvetica-Bold findfont
    dup length dict begin
	{1 index /FID ne {def} {pop pop} ifelse} forall
	/Encoding isolatin1encoding def
    currentdict end
definefont pop
/Helvetica-BoldOblique-latin1
    /Helvetica-BoldOblique findfont
    dup length dict begin
	{1 index /FID ne {def} {pop pop} ifelse} forall
	/Encoding isolatin1encoding def
    currentdict end
definefont pop
/Helvetica-Narrow-latin1
    /Helvetica-Narrow findfont
    dup length dict begin
	{1 index /FID ne {def} {pop pop} ifelse} forall
	/Encoding isolatin1encoding def
    currentdict end
definefont pop
/Helvetica-Narrow-Oblique-latin1
    /Helvetica-Narrow-Oblique findfont
    dup length dict begin
	{1 index /FID ne {def} {pop pop} ifelse} forall
	/Encoding isolatin1encoding def
    currentdict end
definefont pop
/Helvetica-Narrow-Bold-latin1
    /Helvetica-Narrow-Bold findfont
    dup length dict begin
	{1 index /FID ne {def} {pop pop} ifelse} forall
	/Encoding isolatin1encoding def
    currentdict end
definefont pop
/Helvetica-Narrow-BoldOblique-latin1
    /Helvetica-Narrow-BoldOblique findfont
    dup length dict begin
	{1 index /FID ne {def} {pop pop} ifelse} forall
	/Encoding isolatin1encoding def
    currentdict end
definefont pop
/NewCenturySchoolbook-Roman-latin1
    /NewCenturySchoolbook-Roman findfont
    dup length dict begin
	{1 index /FID ne {def} {pop pop} ifelse} forall
	/Encoding isolatin1encoding def
    currentdict end
definefont pop
/NewCenturySchoolbook-Italic-latin1
    /NewCenturySchoolbook-Italic findfont
    dup length dict begin
	{1 index /FID ne {def} {pop pop} ifelse} forall
	/Encoding isolatin1encoding def
    currentdict end
definefont pop
/NewCenturySchoolbook-Bold-latin1
    /NewCenturySchoolbook-Bold findfont
    dup length dict begin
	{1 index /FID ne {def} {pop pop} ifelse} forall
	/Encoding isolatin1encoding def
    currentdict end
definefont pop
/NewCenturySchoolbook-BoldItalic-latin1
    /NewCenturySchoolbook-BoldItalic findfont
    dup length dict begin
	{1 index /FID ne {def} {pop pop} ifelse} forall
	/Encoding isolatin1encoding def
    currentdict end
definefont pop
/Palatino-Roman-latin1
    /Palatino-Roman findfont
    dup length dict begin
	{1 index /FID ne {def} {pop pop} ifelse} forall
	/Encoding isolatin1encoding def
    currentdict end
definefont pop
/Palatino-Italic-latin1
    /Palatino-Italic findfont
    dup length dict begin
	{1 index /FID ne {def} {pop pop} ifelse} forall
	/Encoding isolatin1encoding def
    currentdict end
definefont pop
/Palatino-Bold-latin1
    /Palatino-Bold findfont
    dup length dict begin
	{1 index /FID ne {def} {pop pop} ifelse} forall
	/Encoding isolatin1encoding def
    currentdict end
definefont pop
/Palatino-BoldItalic-latin1
    /Palatino-BoldItalic findfont
    dup length dict begin
	{1 index /FID ne {def} {pop pop} ifelse} forall
	/Encoding isolatin1encoding def
    currentdict end
definefont pop
/Symbol-latin1
    /Symbol findfont
    dup length dict begin
	{1 index /FID ne {def} {pop pop} ifelse} forall
	/Encoding isolatin1encoding def
    currentdict end
definefont pop
/ZapfChancery-MediumItalic-latin1
    /ZapfChancery-MediumItalic findfont
    dup length dict begin
	{1 index /FID ne {def} {pop pop} ifelse} forall
	/Encoding isolatin1encoding def
    currentdict end
definefont pop
/ZapfDingbats-latin1
    /ZapfDingbats findfont
    dup length dict begin
	{1 index /FID ne {def} {pop pop} ifelse} forall
	/Encoding isolatin1encoding def
    currentdict end
definefont pop
/cp {closepath} bind def
/c {curveto} bind def
/f {fill} bind def
/a {arc} bind def
/ef {eofill} bind def
/ex {exch} bind def
/gr {grestore} bind def
/gs {gsave} bind def
/sa {save} bind def
/rs {restore} bind def
/l {lineto} bind def
/m {moveto} bind def
/rm {rmoveto} bind def
/n {newpath} bind def
/s {stroke} bind def
/sh {show} bind def
/slc {setlinecap} bind def
/slj {setlinejoin} bind def
/slw {setlinewidth} bind def
/srgb {setrgbcolor} bind def
/rot {rotate} bind def
/sc {scale} bind def
/sd {setdash} bind def
/ff {findfont} bind def
/sf {setfont} bind def
/scf {scalefont} bind def
/sw {stringwidth pop} bind def
/tr {translate} bind def

/ellipsedict 8 dict def
ellipsedict /mtrx matrix put
/ellipse
{ ellipsedict begin
   /endangle exch def
   /startangle exch def
   /yrad exch def
   /xrad exch def
   /y exch def
   /x exch def   /savematrix mtrx currentmatrix def
   x y tr xrad yrad sc
   0 0 1 startangle endangle arc
   savematrix setmatrix
   end
} def

/colortogray {
/rgbdata exch store
rgbdata length 3 idiv
/npixls exch store
/rgbindx 0 store
0 1 npixls 1 sub {
grays exch
rgbdata rgbindx       get 20 mul
rgbdata rgbindx 1 add get 32 mul
rgbdata rgbindx 2 add get 12 mul
add add 64 idiv
put
/rgbindx rgbindx 3 add store
} for
grays 0 npixls getinterval
} bind def
/mergeprocs {
dup length
3 -1 roll
dup
length
dup
5 1 roll
3 -1 roll
add
array cvx
dup
3 -1 roll
0 exch
putinterval
dup
4 2 roll
putinterval
} bind def
/colorimage {
pop pop
{colortogray} mergeprocs
image
} bind def

28.346000 -28.346000 scale
82.050000 42.950000 translate
%%EndProlog


1.000000 1.000000 1.000000 srgb
n -47.000000 -55.709100 m -47.000000 -43.000000 l -22.000000 -43.000000 l -22.000000 -55.709100 l f
0.100000 slw
[] 0 sd
[] 0 sd
0 slj
0.000000 0.000000 0.000000 srgb
n -47.000000 -55.709100 m -47.000000 -43.000000 l -22.000000 -43.000000 l -22.000000 -55.709100 l cp s
1.000000 1.000000 1.000000 srgb
n -47.000000 -74.000000 m -47.000000 -56.000000 l -22.000000 -56.000000 l -22.000000 -74.000000 l f
0.100000 slw
[] 0 sd
[] 0 sd
0 slj
0.000000 0.000000 0.000000 srgb
n -47.000000 -74.000000 m -47.000000 -56.000000 l -22.000000 -56.000000 l -22.000000 -74.000000 l cp s
1.000000 1.000000 1.000000 srgb
n -82.000000 -74.000000 m -82.000000 -43.000000 l -49.000000 -43.000000 l -49.000000 -74.000000 l f
0.100000 slw
[] 0 sd
[] 0 sd
0 slj
0.000000 0.000000 0.000000 srgb
n -82.000000 -74.000000 m -82.000000 -43.000000 l -49.000000 -43.000000 l -49.000000 -74.000000 l cp s
1.000000 1.000000 1.000000 srgb
n -80.000000 -61.000000 m -80.000000 -56.000000 l -70.000000 -56.000000 l -70.000000 -61.000000 l f
0.100000 slw
[] 0 sd
[] 0 sd
0 slj
0.000000 0.000000 0.000000 srgb
n -80.000000 -61.000000 m -80.000000 -56.000000 l -70.000000 -56.000000 l -70.000000 -61.000000 l cp s
/Times-Bold-latin1 ff 0.800000 scf sf
0.000000 0.000000 0.000000 srgb
(GNOME::Unknown) dup sw 2 div -75.000000 ex sub -60.000000 m gs 1 -1 sc sh gr
1.000000 1.000000 1.000000 srgb
n -79.000000 -59.000000 m -79.000000 -57.000000 l -71.000000 -57.000000 l -71.000000 -59.000000 l f
0.100000 slw
[] 0 sd
[] 0 sd
0 slj
0.000000 0.000000 0.000000 srgb
n -79.000000 -59.000000 m -79.000000 -57.000000 l -71.000000 -57.000000 l -71.000000 -59.000000 l cp s
/Times-Bold-latin1 ff 0.800000 scf sf
0.000000 0.000000 0.000000 srgb
(GNOME::Container) dup sw 2 div -75.000000 ex sub -58.000000 m gs 1 -1 sc sh gr
0.100000 slw
[] 0 sd
0 slc
0.000000 0.000000 0.000000 srgb
n -71.000000 -58.000000 m -68.000000 -58.000000 l s
1.000000 1.000000 1.000000 srgb
n -68.350000 -58.000000 0.350000 0.350000 0 360 ellipse f
0.000000 0.000000 0.000000 srgb
n -68.350000 -58.000000 0.350000 0.350000 0 360 ellipse cp s
/Courier-latin1 ff 0.800000 scf sf
0.000000 0.000000 0.000000 srgb
() -68.300000 -58.000000 m gs 1 -1 sc sh gr
1.000000 1.000000 1.000000 srgb
n -73.000000 -68.000000 m -73.000000 -62.000000 l -63.000000 -62.000000 l -63.000000 -68.000000 l f
0.100000 slw
[] 0 sd
[] 0 sd
0 slj
0.000000 0.000000 0.000000 srgb
n -73.000000 -68.000000 m -73.000000 -62.000000 l -63.000000 -62.000000 l -63.000000 -68.000000 l cp s
/Times-Bold-latin1 ff 0.800000 scf sf
0.000000 0.000000 0.000000 srgb
(GNOME::Unknown) dup sw 2 div -68.000000 ex sub -67.000000 m gs 1 -1 sc sh gr
1.000000 1.000000 1.000000 srgb
n -72.000000 -66.000000 m -72.000000 -63.000000 l -64.000000 -63.000000 l -64.000000 -66.000000 l f
0.100000 slw
[] 0 sd
[] 0 sd
0 slj
0.000000 0.000000 0.000000 srgb
n -72.000000 -66.000000 m -72.000000 -63.000000 l -64.000000 -63.000000 l -64.000000 -66.000000 l cp s
/Times-Bold-latin1 ff 0.800000 scf sf
0.000000 0.000000 0.000000 srgb
(GNOME::ClientSite) dup sw 2 div -68.000000 ex sub -65.000000 m gs 1 -1 sc sh gr
0.100000 slw
[] 0 sd
0 slc
0.000000 0.000000 0.000000 srgb
n -64.000000 -65.000000 m -61.000000 -65.000000 l s
1.000000 1.000000 1.000000 srgb
n -61.350000 -65.000000 0.350000 0.350000 0 360 ellipse f
0.000000 0.000000 0.000000 srgb
n -61.350000 -65.000000 0.350000 0.350000 0 360 ellipse cp s
/Courier-latin1 ff 0.800000 scf sf
0.000000 0.000000 0.000000 srgb
() -61.300000 -65.000000 m gs 1 -1 sc sh gr
1.000000 1.000000 1.000000 srgb
n -61.000000 -50.000000 m -61.000000 -44.000000 l -51.000000 -44.000000 l -51.000000 -50.000000 l f
0.100000 slw
[] 0 sd
[] 0 sd
0 slj
0.000000 0.000000 0.000000 srgb
n -61.000000 -50.000000 m -61.000000 -44.000000 l -51.000000 -44.000000 l -51.000000 -50.000000 l cp s
/Times-Bold-latin1 ff 0.800000 scf sf
0.000000 0.000000 0.000000 srgb
(GNOME::Unknown) dup sw 2 div -56.000000 ex sub -49.000000 m gs 1 -1 sc sh gr
1.000000 1.000000 1.000000 srgb
n -60.000000 -48.000000 m -60.000000 -45.000000 l -52.000000 -45.000000 l -52.000000 -48.000000 l f
0.100000 slw
[] 0 sd
[] 0 sd
0 slj
0.000000 0.000000 0.000000 srgb
n -60.000000 -48.000000 m -60.000000 -45.000000 l -52.000000 -45.000000 l -52.000000 -48.000000 l cp s
/Times-Bold-latin1 ff 0.800000 scf sf
0.000000 0.000000 0.000000 srgb
(GNOME::ViewFrame) dup sw 2 div -56.000000 ex sub -47.000000 m gs 1 -1 sc sh gr
0.100000 slw
[] 0 sd
0 slc
0.000000 0.000000 0.000000 srgb
n -52.000000 -47.000000 m -49.000000 -47.000000 l s
1.000000 1.000000 1.000000 srgb
n -49.350000 -47.000000 0.350000 0.350000 0 360 ellipse f
0.000000 0.000000 0.000000 srgb
n -49.350000 -47.000000 0.350000 0.350000 0 360 ellipse cp s
/Courier-latin1 ff 0.800000 scf sf
0.000000 0.000000 0.000000 srgb
() -49.300000 -47.000000 m gs 1 -1 sc sh gr
1.000000 1.000000 1.000000 srgb
n -73.000000 -55.000000 m -73.000000 -49.000000 l -63.000000 -49.000000 l -63.000000 -55.000000 l f
0.100000 slw
[] 0 sd
[] 0 sd
0 slj
0.000000 0.000000 0.000000 srgb
n -73.000000 -55.000000 m -73.000000 -49.000000 l -63.000000 -49.000000 l -63.000000 -55.000000 l cp s
/Times-Bold-latin1 ff 0.800000 scf sf
0.000000 0.000000 0.000000 srgb
(GNOME::Unknown) dup sw 2 div -68.000000 ex sub -54.000000 m gs 1 -1 sc sh gr
1.000000 1.000000 1.000000 srgb
n -72.000000 -53.000000 m -72.000000 -50.000000 l -64.000000 -50.000000 l -64.000000 -53.000000 l f
0.100000 slw
[] 0 sd
[] 0 sd
0 slj
0.000000 0.000000 0.000000 srgb
n -72.000000 -53.000000 m -72.000000 -50.000000 l -64.000000 -50.000000 l -64.000000 -53.000000 l cp s
/Times-Bold-latin1 ff 0.800000 scf sf
0.000000 0.000000 0.000000 srgb
(GNOME::ClientSite) dup sw 2 div -68.000000 ex sub -52.000000 m gs 1 -1 sc sh gr
0.100000 slw
[] 0 sd
0 slc
0.000000 0.000000 0.000000 srgb
n -64.000000 -52.000000 m -61.000000 -52.000000 l s
1.000000 1.000000 1.000000 srgb
n -61.350000 -52.000000 0.350000 0.350000 0 360 ellipse f
0.000000 0.000000 0.000000 srgb
n -61.350000 -52.000000 0.350000 0.350000 0 360 ellipse cp s
/Courier-latin1 ff 0.800000 scf sf
0.000000 0.000000 0.000000 srgb
() -61.300000 -52.000000 m gs 1 -1 sc sh gr
1.000000 1.000000 1.000000 srgb
n -61.000000 -73.000000 m -61.000000 -67.000000 l -51.000000 -67.000000 l -51.000000 -73.000000 l f
0.100000 slw
[] 0 sd
[] 0 sd
0 slj
0.000000 0.000000 0.000000 srgb
n -61.000000 -73.000000 m -61.000000 -67.000000 l -51.000000 -67.000000 l -51.000000 -73.000000 l cp s
/Times-Bold-latin1 ff 0.800000 scf sf
0.000000 0.000000 0.000000 srgb
(GNOME::Unknown) dup sw 2 div -56.000000 ex sub -72.000000 m gs 1 -1 sc sh gr
1.000000 1.000000 1.000000 srgb
n -60.000000 -71.000000 m -60.000000 -68.000000 l -52.000000 -68.000000 l -52.000000 -71.000000 l f
0.100000 slw
[] 0 sd
[] 0 sd
0 slj
0.000000 0.000000 0.000000 srgb
n -60.000000 -71.000000 m -60.000000 -68.000000 l -52.000000 -68.000000 l -52.000000 -71.000000 l cp s
/Times-Bold-latin1 ff 0.800000 scf sf
0.000000 0.000000 0.000000 srgb
(GNOME::ViewFrame) dup sw 2 div -56.000000 ex sub -70.000000 m gs 1 -1 sc sh gr
0.100000 slw
[] 0 sd
0 slc
0.000000 0.000000 0.000000 srgb
n -52.000000 -70.000000 m -49.000000 -70.000000 l s
1.000000 1.000000 1.000000 srgb
n -49.350000 -70.000000 0.350000 0.350000 0 360 ellipse f
0.000000 0.000000 0.000000 srgb
n -49.350000 -70.000000 0.350000 0.350000 0 360 ellipse cp s
/Courier-latin1 ff 0.800000 scf sf
0.000000 0.000000 0.000000 srgb
() -49.300000 -70.000000 m gs 1 -1 sc sh gr
1.000000 1.000000 1.000000 srgb
n -61.000000 -63.000000 m -61.000000 -57.000000 l -51.000000 -57.000000 l -51.000000 -63.000000 l f
0.100000 slw
[] 0 sd
[] 0 sd
0 slj
0.000000 0.000000 0.000000 srgb
n -61.000000 -63.000000 m -61.000000 -57.000000 l -51.000000 -57.000000 l -51.000000 -63.000000 l cp s
/Times-Bold-latin1 ff 0.800000 scf sf
0.000000 0.000000 0.000000 srgb
(GNOME::Unknown) dup sw 2 div -56.000000 ex sub -62.000000 m gs 1 -1 sc sh gr
1.000000 1.000000 1.000000 srgb
n -60.000000 -61.000000 m -60.000000 -58.000000 l -52.000000 -58.000000 l -52.000000 -61.000000 l f
0.100000 slw
[] 0 sd
[] 0 sd
0 slj
0.000000 0.000000 0.000000 srgb
n -60.000000 -61.000000 m -60.000000 -58.000000 l -52.000000 -58.000000 l -52.000000 -61.000000 l cp s
/Times-Bold-latin1 ff 0.800000 scf sf
0.000000 0.000000 0.000000 srgb
(GNOME::ViewFrame) dup sw 2 div -56.000000 ex sub -60.000000 m gs 1 -1 sc sh gr
0.100000 slw
[] 0 sd
0 slc
0.000000 0.000000 0.000000 srgb
n -52.000000 -60.000000 m -49.000000 -60.000000 l s
1.000000 1.000000 1.000000 srgb
n -49.350000 -60.000000 0.350000 0.350000 0 360 ellipse f
0.000000 0.000000 0.000000 srgb
n -49.350000 -60.000000 0.350000 0.350000 0 360 ellipse cp s
/Courier-latin1 ff 0.800000 scf sf
0.000000 0.000000 0.000000 srgb
() -49.300000 -60.000000 m gs 1 -1 sc sh gr
0.100000 slw
[1.000000] 0 sd
[0.400000] 0 sd
0 slj
0 slc
0.000000 0.000000 0.000000 srgb
n -77.000000 -56.000000 m -77.000000 -52.000000 l -74.000000 -52.000000 l s
0.100000 slw
[] 0 sd
0 slj
0 slc
0.000000 0.000000 0.000000 srgb
n -74.800000 -51.750000 m -74.000000 -52.000000 l -74.800000 -52.250000 l s
/Courier-latin1 ff 0.800000 scf sf
0.100000 slw
[0.400000] 0 sd
[0.400000] 0 sd
0 slj
0 slc
0.000000 0.000000 0.000000 srgb
n -77.000000 -61.000000 m -77.000000 -65.000000 l -74.000000 -65.000000 l s
0.100000 slw
[] 0 sd
0 slj
0 slc
0.000000 0.000000 0.000000 srgb
n -74.800000 -64.750000 m -74.000000 -65.000000 l -74.800000 -65.250000 l s
/Courier-latin1 ff 0.800000 scf sf
0.100000 slw
[0.400000] 0 sd
[0.400000] 0 sd
0 slj
0 slc
0.000000 0.000000 0.000000 srgb
n -65.000000 -68.000000 m -65.000000 -70.000000 l -62.000000 -70.000000 l s
0.100000 slw
[] 0 sd
0 slj
0 slc
0.000000 0.000000 0.000000 srgb
n -62.800000 -69.750000 m -62.000000 -70.000000 l -62.800000 -70.250000 l s
/Courier-latin1 ff 0.800000 scf sf
0.100000 slw
[0.400000] 0 sd
[0.400000] 0 sd
0 slj
0 slc
0.000000 0.000000 0.000000 srgb
n -65.000000 -62.000000 m -65.000000 -60.000000 l -62.000000 -60.000000 l s
0.100000 slw
[] 0 sd
0 slj
0 slc
0.000000 0.000000 0.000000 srgb
n -62.800000 -59.750000 m -62.000000 -60.000000 l -62.800000 -60.250000 l s
/Courier-latin1 ff 0.800000 scf sf
0.100000 slw
[0.400000] 0 sd
[0.400000] 0 sd
0 slj
0 slc
0.000000 0.000000 0.000000 srgb
n -65.000000 -49.000000 m -65.000000 -47.000000 l -62.000000 -47.000000 l s
0.100000 slw
[] 0 sd
0 slj
0 slc
0.000000 0.000000 0.000000 srgb
n -62.800000 -46.750000 m -62.000000 -47.000000 l -62.800000 -47.250000 l s
/Courier-latin1 ff 0.800000 scf sf
1.000000 1.000000 1.000000 srgb
n -45.000000 -73.000000 m -45.000000 -67.000000 l -35.000000 -67.000000 l -35.000000 -73.000000 l f
0.100000 slw
[] 0 sd
[] 0 sd
0 slj
0.000000 0.000000 0.000000 srgb
n -45.000000 -73.000000 m -45.000000 -67.000000 l -35.000000 -67.000000 l -35.000000 -73.000000 l cp s
/Times-Bold-latin1 ff 0.800000 scf sf
0.000000 0.000000 0.000000 srgb
(GNOME::Unknown) dup sw 2 div -40.000000 ex sub -72.000000 m gs 1 -1 sc sh gr
1.000000 1.000000 1.000000 srgb
n -44.000000 -71.000000 m -44.000000 -68.000000 l -36.000000 -68.000000 l -36.000000 -71.000000 l f
0.100000 slw
[] 0 sd
[] 0 sd
0 slj
0.000000 0.000000 0.000000 srgb
n -44.000000 -71.000000 m -44.000000 -68.000000 l -36.000000 -68.000000 l -36.000000 -71.000000 l cp s
/Times-Bold-latin1 ff 0.800000 scf sf
0.000000 0.000000 0.000000 srgb
(GNOME::View) dup sw 2 div -40.000000 ex sub -70.000000 m gs 1 -1 sc sh gr
0.100000 slw
[] 0 sd
0 slc
0.000000 0.000000 0.000000 srgb
n -44.000000 -69.000000 m -47.000000 -69.000000 l s
1.000000 1.000000 1.000000 srgb
n -46.650000 -69.000000 0.350000 0.350000 0 360 ellipse f
0.000000 0.000000 0.000000 srgb
n -46.650000 -69.000000 0.350000 0.350000 0 360 ellipse cp s
/Courier-latin1 ff 0.800000 scf sf
0.000000 0.000000 0.000000 srgb
() -47.300000 -69.000000 m gs 1 -1 sc sh gr
1.000000 1.000000 1.000000 srgb
n -45.000000 -63.000000 m -45.000000 -57.000000 l -35.000000 -57.000000 l -35.000000 -63.000000 l f
0.100000 slw
[] 0 sd
[] 0 sd
0 slj
0.000000 0.000000 0.000000 srgb
n -45.000000 -63.000000 m -45.000000 -57.000000 l -35.000000 -57.000000 l -35.000000 -63.000000 l cp s
/Times-Bold-latin1 ff 0.800000 scf sf
0.000000 0.000000 0.000000 srgb
(GNOME::Unknown) dup sw 2 div -40.000000 ex sub -62.000000 m gs 1 -1 sc sh gr
1.000000 1.000000 1.000000 srgb
n -44.000000 -61.000000 m -44.000000 -58.000000 l -36.000000 -58.000000 l -36.000000 -61.000000 l f
0.100000 slw
[] 0 sd
[] 0 sd
0 slj
0.000000 0.000000 0.000000 srgb
n -44.000000 -61.000000 m -44.000000 -58.000000 l -36.000000 -58.000000 l -36.000000 -61.000000 l cp s
/Times-Bold-latin1 ff 0.800000 scf sf
0.000000 0.000000 0.000000 srgb
(GNOME::View) dup sw 2 div -40.000000 ex sub -60.000000 m gs 1 -1 sc sh gr
0.100000 slw
[] 0 sd
0 slc
0.000000 0.000000 0.000000 srgb
n -44.000000 -59.000000 m -47.000000 -59.000000 l s
1.000000 1.000000 1.000000 srgb
n -46.650000 -59.000000 0.350000 0.350000 0 360 ellipse f
0.000000 0.000000 0.000000 srgb
n -46.650000 -59.000000 0.350000 0.350000 0 360 ellipse cp s
/Courier-latin1 ff 0.800000 scf sf
0.000000 0.000000 0.000000 srgb
() -47.300000 -59.000000 m gs 1 -1 sc sh gr
1.000000 1.000000 1.000000 srgb
n -45.000000 -50.000000 m -45.000000 -44.000000 l -35.000000 -44.000000 l -35.000000 -50.000000 l f
0.100000 slw
[] 0 sd
[] 0 sd
0 slj
0.000000 0.000000 0.000000 srgb
n -45.000000 -50.000000 m -45.000000 -44.000000 l -35.000000 -44.000000 l -35.000000 -50.000000 l cp s
/Times-Bold-latin1 ff 0.800000 scf sf
0.000000 0.000000 0.000000 srgb
(GNOME::Unknown) dup sw 2 div -40.000000 ex sub -49.000000 m gs 1 -1 sc sh gr
1.000000 1.000000 1.000000 srgb
n -44.000000 -48.000000 m -44.000000 -45.000000 l -36.000000 -45.000000 l -36.000000 -48.000000 l f
0.100000 slw
[] 0 sd
[] 0 sd
0 slj
0.000000 0.000000 0.000000 srgb
n -44.000000 -48.000000 m -44.000000 -45.000000 l -36.000000 -45.000000 l -36.000000 -48.000000 l cp s
/Times-Bold-latin1 ff 0.800000 scf sf
0.000000 0.000000 0.000000 srgb
(GNOME::View) dup sw 2 div -40.000000 ex sub -47.000000 m gs 1 -1 sc sh gr
0.100000 slw
[] 0 sd
0 slc
0.000000 0.000000 0.000000 srgb
n -44.000000 -46.000000 m -47.000000 -46.000000 l s
1.000000 1.000000 1.000000 srgb
n -46.650000 -46.000000 0.350000 0.350000 0 360 ellipse f
0.000000 0.000000 0.000000 srgb
n -46.650000 -46.000000 0.350000 0.350000 0 360 ellipse cp s
/Courier-latin1 ff 0.800000 scf sf
0.000000 0.000000 0.000000 srgb
() -47.300000 -46.000000 m gs 1 -1 sc sh gr
1.000000 1.000000 1.000000 srgb
n -33.000000 -68.000000 m -33.000000 -62.000000 l -23.000000 -62.000000 l -23.000000 -68.000000 l f
0.100000 slw
[] 0 sd
[] 0 sd
0 slj
0.000000 0.000000 0.000000 srgb
n -33.000000 -68.000000 m -33.000000 -62.000000 l -23.000000 -62.000000 l -23.000000 -68.000000 l cp s
/Times-Bold-latin1 ff 0.800000 scf sf
0.000000 0.000000 0.000000 srgb
(GNOME::Unknown) dup sw 2 div -28.000000 ex sub -67.000000 m gs 1 -1 sc sh gr
1.000000 1.000000 1.000000 srgb
n -32.000000 -66.000000 m -32.000000 -63.000000 l -24.000000 -63.000000 l -24.000000 -66.000000 l f
0.100000 slw
[] 0 sd
[] 0 sd
0 slj
0.000000 0.000000 0.000000 srgb
n -32.000000 -66.000000 m -32.000000 -63.000000 l -24.000000 -63.000000 l -24.000000 -66.000000 l cp s
/Times-Bold-latin1 ff 0.800000 scf sf
0.000000 0.000000 0.000000 srgb
(GNOME::Embeddable) dup sw 2 div -28.000000 ex sub -65.000000 m gs 1 -1 sc sh gr
0.100000 slw
[] 0 sd
0 slc
0.000000 0.000000 0.000000 srgb
n -32.000000 -64.000000 m -35.000000 -64.000000 l s
1.000000 1.000000 1.000000 srgb
n -34.650000 -64.000000 0.350000 0.350000 0 360 ellipse f
0.000000 0.000000 0.000000 srgb
n -34.650000 -64.000000 0.350000 0.350000 0 360 ellipse cp s
/Courier-latin1 ff 0.800000 scf sf
0.000000 0.000000 0.000000 srgb
() -35.300000 -64.000000 m gs 1 -1 sc sh gr
1.000000 1.000000 1.000000 srgb
n -33.000000 -55.000000 m -33.000000 -49.000000 l -23.000000 -49.000000 l -23.000000 -55.000000 l f
0.100000 slw
[] 0 sd
[] 0 sd
0 slj
0.000000 0.000000 0.000000 srgb
n -33.000000 -55.000000 m -33.000000 -49.000000 l -23.000000 -49.000000 l -23.000000 -55.000000 l cp s
/Times-Bold-latin1 ff 0.800000 scf sf
0.000000 0.000000 0.000000 srgb
(GNOME::Unknown) dup sw 2 div -28.000000 ex sub -54.000000 m gs 1 -1 sc sh gr
1.000000 1.000000 1.000000 srgb
n -32.000000 -53.000000 m -32.000000 -50.000000 l -24.000000 -50.000000 l -24.000000 -53.000000 l f
0.100000 slw
[] 0 sd
[] 0 sd
0 slj
0.000000 0.000000 0.000000 srgb
n -32.000000 -53.000000 m -32.000000 -50.000000 l -24.000000 -50.000000 l -24.000000 -53.000000 l cp s
/Times-Bold-latin1 ff 0.800000 scf sf
0.000000 0.000000 0.000000 srgb
(GNOME::Embeddable) dup sw 2 div -28.000000 ex sub -52.000000 m gs 1 -1 sc sh gr
0.100000 slw
[] 0 sd
0 slc
0.000000 0.000000 0.000000 srgb
n -32.000000 -51.000000 m -35.000000 -51.000000 l s
1.000000 1.000000 1.000000 srgb
n -34.650000 -51.000000 0.350000 0.350000 0 360 ellipse f
0.000000 0.000000 0.000000 srgb
n -34.650000 -51.000000 0.350000 0.350000 0 360 ellipse cp s
/Courier-latin1 ff 0.800000 scf sf
0.000000 0.000000 0.000000 srgb
() -35.300000 -51.000000 m gs 1 -1 sc sh gr
0.100000 slw
[1.000000] 0 sd
[0.400000] 0 sd
0 slj
0 slc
0.000000 0.000000 0.000000 srgb
n -31.000000 -68.000000 m -31.000000 -70.000000 l -34.000000 -70.000000 l s
0.100000 slw
[] 0 sd
0 slj
0 slc
0.000000 0.000000 0.000000 srgb
n -33.200000 -70.250000 m -34.000000 -70.000000 l -33.200000 -69.750000 l s
/Courier-latin1 ff 0.800000 scf sf
0.100000 slw
[0.400000] 0 sd
[0.400000] 0 sd
0 slj
0 slc
0.000000 0.000000 0.000000 srgb
n -31.000000 -62.000000 m -31.000000 -60.000000 l -34.000000 -60.000000 l s
0.100000 slw
[] 0 sd
0 slj
0 slc
0.000000 0.000000 0.000000 srgb
n -33.200000 -60.250000 m -34.000000 -60.000000 l -33.200000 -59.750000 l s
/Courier-latin1 ff 0.800000 scf sf
0.100000 slw
[0.400000] 0 sd
[0.400000] 0 sd
0 slj
0 slc
0.000000 0.000000 0.000000 srgb
n -31.000000 -49.000000 m -31.000000 -47.000000 l -34.000000 -47.000000 l s
0.100000 slw
[] 0 sd
0 slj
0 slc
0.000000 0.000000 0.000000 srgb
n -33.200000 -47.250000 m -34.000000 -47.000000 l -33.200000 -46.750000 l s
/Courier-latin1 ff 0.800000 scf sf
0.100000 slw
[] 0 sd
[] 0 sd
0 slc
0.000000 0.000000 0.000000 srgb
n -44.000000 -70.000000 m -48.000000 -70.000000 l s
0 slj
0.000000 0.000000 0.000000 srgb
n -47.200000 -70.400000 m -48.000000 -70.000000 l -47.200000 -69.600000 l f
0.100000 slw
[] 0 sd
[] 0 sd
0 slc
0.000000 0.000000 0.000000 srgb
n -52.000000 -69.000000 m -48.000000 -69.000000 l s
0 slj
0.000000 0.000000 0.000000 srgb
n -48.800000 -68.600000 m -48.000000 -69.000000 l -48.800000 -69.400000 l f
0.100000 slw
[] 0 sd
[] 0 sd
0 slc
0.000000 0.000000 0.000000 srgb
n -44.000000 -60.000000 m -48.000000 -60.000000 l s
0 slj
0.000000 0.000000 0.000000 srgb
n -47.200000 -60.400000 m -48.000000 -60.000000 l -47.200000 -59.600000 l f
0.100000 slw
[] 0 sd
[] 0 sd
0 slc
0.000000 0.000000 0.000000 srgb
n -52.000000 -59.000000 m -48.000000 -59.000000 l s
0 slj
0.000000 0.000000 0.000000 srgb
n -48.800000 -58.600000 m -48.000000 -59.000000 l -48.800000 -59.400000 l f
0.100000 slw
[] 0 sd
[] 0 sd
0 slc
0.000000 0.000000 0.000000 srgb
n -44.000000 -47.000000 m -48.000000 -47.000000 l s
0 slj
0.000000 0.000000 0.000000 srgb
n -47.200000 -47.400000 m -48.000000 -47.000000 l -47.200000 -46.600000 l f
0.100000 slw
[] 0 sd
[] 0 sd
0 slc
0.000000 0.000000 0.000000 srgb
n -52.000000 -46.000000 m -48.000000 -46.000000 l s
0 slj
0.000000 0.000000 0.000000 srgb
n -48.800000 -45.600000 m -48.000000 -46.000000 l -48.800000 -46.400000 l f
0.100000 slw
[] 0 sd
[] 0 sd
0 slc
0.000000 0.000000 0.000000 srgb
n -64.000000 -51.000000 m -36.000000 -51.000000 l s
0 slj
0.000000 0.000000 0.000000 srgb
n -36.800000 -50.600000 m -36.000000 -51.000000 l -36.800000 -51.400000 l f
0.100000 slw
[] 0 sd
[] 0 sd
0 slc
0.000000 0.000000 0.000000 srgb
n -64.000000 -64.000000 m -36.000000 -64.000000 l s
0 slj
0.000000 0.000000 0.000000 srgb
n -36.800000 -63.600000 m -36.000000 -64.000000 l -36.800000 -64.400000 l f
0.100000 slw
[] 0 sd
[] 0 sd
0 slc
0.000000 0.000000 0.000000 srgb
n -32.000000 -65.000000 m -60.000000 -65.000000 l s
0 slj
0.000000 0.000000 0.000000 srgb
n -59.200000 -65.400000 m -60.000000 -65.000000 l -59.200000 -64.600000 l f
0.100000 slw
[] 0 sd
[] 0 sd
0 slc
0.000000 0.000000 0.000000 srgb
n -32.000000 -52.000000 m -60.000000 -52.000000 l s
0 slj
0.000000 0.000000 0.000000 srgb
n -59.200000 -52.400000 m -60.000000 -52.000000 l -59.200000 -51.600000 l f
/Times-Bold-latin1 ff 1.200000 scf sf
0.000000 0.000000 0.000000 srgb
(Container) dup sw 2 div -73.000000 ex sub -72.000000 m gs 1 -1 sc sh gr
/Times-Bold-latin1 ff 1.200000 scf sf
0.000000 0.000000 0.000000 srgb
(Component) dup sw 2 div -29.000000 ex sub -72.000000 m gs 1 -1 sc sh gr
/Times-Bold-latin1 ff 1.200000 scf sf
0.000000 0.000000 0.000000 srgb
(Component) dup sw 2 div -28.000000 ex sub -44.000000 m gs 1 -1 sc sh gr
showpage
