%!PS-Adobe-2.0 EPSF-2.0
%%Title: /home/mathieu/.gnome-desktop/corba/image/poa-structure.dia
%%Creator: Dia v0.40
%%CreationDate: Sat Aug 14 21:45:30 1999
%%For: mathieu
%%Magnification: 1.0000
%%Orientation: Portrait
%%BoundingBox: 0 0 287 343
%%Pages: 1
%%BeginSetup
%%EndSetup
%%EndComments
/cp {closepath} bind def
/c {curveto} bind def
/f {fill} bind def
/a {arc} bind def
/ef {eofill} bind def
/ex {exch} bind def
/gr {grestore} bind def
/gs {gsave} bind def
/sa {save} bind def
/rs {restore} bind def
/l {lineto} bind def
/m {moveto} bind def
/rm {rmoveto} bind def
/n {newpath} bind def
/s {stroke} bind def
/sh {show} bind def
/slc {setlinecap} bind def
/slj {setlinejoin} bind def
/slw {setlinewidth} bind def
/srgb {setrgbcolor} bind def
/rot {rotate} bind def
/sc {scale} bind def
/sd {setdash} bind def
/ff {findfont} bind def
/sf {setfont} bind def
/scf {scalefont} bind def
/sw {stringwidth pop} bind def
/tr {translate} bind def

/ellipsedict 8 dict def
ellipsedict /mtrx matrix put
/ellipse
{ ellipsedict begin
   /endangle exch def
   /startangle exch def
   /yrad exch def
   /xrad exch def
   /y exch def
   /x exch def   /savematrix mtrx currentmatrix def
   x y tr xrad yrad sc
   0 0 1 startangle endangle arc
   savematrix setmatrix
   end
} def

/colortogray {
/rgbdata exch store
rgbdata length 3 idiv
/npixls exch store
/rgbindx 0 store
0 1 npixls 1 sub {
grays exch
rgbdata rgbindx       get 20 mul
rgbdata rgbindx 1 add get 32 mul
rgbdata rgbindx 2 add get 12 mul
add add 64 idiv
put
/rgbindx rgbindx 3 add store
} for
grays 0 npixls getinterval
} bind def
/mergeprocs {
dup length
3 -1 roll
dup
length
dup
5 1 roll
3 -1 roll
add
array cvx
dup
3 -1 roll
0 exch
putinterval
dup
4 2 roll
putinterval
} bind def
/colorimage {
pop pop
{colortogray} mergeprocs
image
} bind def

28.346000 -28.346000 scale
11.450000 -2.850000 translate
%%EndProlog


1.000000 1.000000 1.000000 srgb
n -11.400000 -9.200000 m -11.400000 2.800000 l -1.400000 2.800000 l -1.400000 -9.200000 l f
0.100000 slw
[] 0 sd
0 slj
0.000000 0.000000 0.000000 srgb
n -11.400000 -9.200000 m -11.400000 2.800000 l -1.400000 2.800000 l -1.400000 -9.200000 l cp s
1.000000 1.000000 1.000000 srgb
n -4.850000 -4.250000 m -4.850000 -2.450000 l -2.850000 -2.450000 l -2.850000 -4.250000 l f
0.100000 slw
[] 0 sd
0 slj
0.000000 0.000000 0.000000 srgb
n -4.850000 -4.250000 m -4.850000 -2.450000 l -2.850000 -2.450000 l -2.850000 -4.250000 l cp s
1.000000 1.000000 1.000000 srgb
n -9.400000 -7.200000 m -9.400000 -3.200000 l -6.400000 -3.200000 l -6.400000 -7.200000 l f
0.100000 slw
[] 0 sd
0 slj
0.000000 0.000000 0.000000 srgb
n -9.400000 -7.200000 m -9.400000 -3.200000 l -6.400000 -3.200000 l -6.400000 -7.200000 l cp s
1.000000 1.000000 1.000000 srgb
n -4.500000 -7.800000 m -4.500000 -6.000000 l -2.500000 -6.000000 l -2.500000 -7.800000 l f
0.100000 slw
[] 0 sd
0 slj
0.000000 0.000000 0.000000 srgb
n -4.500000 -7.800000 m -4.500000 -6.000000 l -2.500000 -6.000000 l -2.500000 -7.800000 l cp s
0.100000 slw
[] 0 sd
0 slc
0.000000 0.000000 0.000000 srgb
n -3.500000 -6.800000 m -7.400000 -6.200000 l s
1.000000 1.000000 1.000000 srgb
n -7.054070 -6.253220 0.350000 0.350000 0 360 ellipse f
0.000000 0.000000 0.000000 srgb
n -7.054070 -6.253220 0.350000 0.350000 0 360 ellipse cp s
/Courier ff 0.800000 scf sf
0.000000 0.000000 0.000000 srgb
() -7.700000 -6.200000 m gs 1 -1 sc sh gr
0.100000 slw
[] 0 sd
0 slc
0.000000 0.000000 0.000000 srgb
n -3.400000 -3.200000 m -7.400000 -4.200000 l s
1.000000 1.000000 1.000000 srgb
n -7.060450 -4.115113 0.350000 0.350000 0 360 ellipse f
0.000000 0.000000 0.000000 srgb
n -7.060450 -4.115113 0.350000 0.350000 0 360 ellipse cp s
/Courier ff 0.800000 scf sf
0.000000 0.000000 0.000000 srgb
() -7.700000 -4.200000 m gs 1 -1 sc sh gr
/Times-Roman ff 1.000000 scf sf
0.000000 0.000000 0.000000 srgb
(Server) -7.700000 1.900000 m gs 1 -1 sc sh gr
/Times-Roman ff 1.000000 scf sf
0.000000 0.000000 0.000000 srgb
(POA) -9.300000 -2.200000 m gs 1 -1 sc sh gr
/Times-Roman ff 1.000000 scf sf
0.000000 0.000000 0.000000 srgb
(Servant) -5.100000 -1.400000 m gs 1 -1 sc sh gr
/Times-Roman ff 1.000000 scf sf
0.000000 0.000000 0.000000 srgb
(Servant) -5.100000 -5.100000 m gs 1 -1 sc sh gr
showpage
