%!PS-Adobe-2.0 EPSF-2.0
%%Title: /home/mathieu/.gnome-desktop/corba/image/poa-request-1.dia
%%Creator: Dia v0.40
%%CreationDate: Sat Aug 14 22:05:26 1999
%%For: mathieu
%%Magnification: 1.0000
%%Orientation: Portrait
%%BoundingBox: 0 0 504 232
%%Pages: 1
%%BeginSetup
%%EndSetup
%%EndComments
/cp {closepath} bind def
/c {curveto} bind def
/f {fill} bind def
/a {arc} bind def
/ef {eofill} bind def
/ex {exch} bind def
/gr {grestore} bind def
/gs {gsave} bind def
/sa {save} bind def
/rs {restore} bind def
/l {lineto} bind def
/m {moveto} bind def
/rm {rmoveto} bind def
/n {newpath} bind def
/s {stroke} bind def
/sh {show} bind def
/slc {setlinecap} bind def
/slj {setlinejoin} bind def
/slw {setlinewidth} bind def
/srgb {setrgbcolor} bind def
/rot {rotate} bind def
/sc {scale} bind def
/sd {setdash} bind def
/ff {findfont} bind def
/sf {setfont} bind def
/scf {scalefont} bind def
/sw {stringwidth pop} bind def
/tr {translate} bind def

/ellipsedict 8 dict def
ellipsedict /mtrx matrix put
/ellipse
{ ellipsedict begin
   /endangle exch def
   /startangle exch def
   /yrad exch def
   /xrad exch def
   /y exch def
   /x exch def   /savematrix mtrx currentmatrix def
   x y tr xrad yrad sc
   0 0 1 startangle endangle arc
   savematrix setmatrix
   end
} def

/colortogray {
/rgbdata exch store
rgbdata length 3 idiv
/npixls exch store
/rgbindx 0 store
0 1 npixls 1 sub {
grays exch
rgbdata rgbindx       get 20 mul
rgbdata rgbindx 1 add get 32 mul
rgbdata rgbindx 2 add get 12 mul
add add 64 idiv
put
/rgbindx rgbindx 3 add store
} for
grays 0 npixls getinterval
} bind def
/mergeprocs {
dup length
3 -1 roll
dup
length
dup
5 1 roll
3 -1 roll
add
array cvx
dup
3 -1 roll
0 exch
putinterval
dup
4 2 roll
putinterval
} bind def
/colorimage {
pop pop
{colortogray} mergeprocs
image
} bind def

28.346000 -28.346000 scale
10.850000 0.950000 translate
%%EndProlog


1.000000 1.000000 1.000000 srgb
n -10.800000 -7.900000 m -10.800000 -1.000000 l -5.900000 -1.000000 l -5.900000 -7.900000 l f
0.100000 slw
[] 0 sd
0 slj
0.000000 0.000000 0.000000 srgb
n -10.800000 -7.900000 m -10.800000 -1.000000 l -5.900000 -1.000000 l -5.900000 -7.900000 l cp s
/Times-Roman ff 1.000000 scf sf
0.000000 0.000000 0.000000 srgb
(Client) -9.900000 -6.900000 m gs 1 -1 sc sh gr
1.000000 1.000000 1.000000 srgb
n -0.950000 -9.050000 m -0.950000 -5.650000 l 6.850000 -5.650000 l 6.850000 -9.050000 l f
0.100000 slw
[] 0 sd
0 slj
0.000000 0.000000 0.000000 srgb
n -0.950000 -9.050000 m -0.950000 -5.650000 l 6.850000 -5.650000 l 6.850000 -9.050000 l cp s
/Times-Roman ff 1.000000 scf sf
0.000000 0.000000 0.000000 srgb
(Naming Service) -0.150000 -7.050000 m gs 1 -1 sc sh gr
1.000000 1.000000 1.000000 srgb
n -1.900000 -3.900000 m -1.900000 -1.000000 l 5.000000 -1.000000 l 5.000000 -3.900000 l f
0.100000 slw
[] 0 sd
0 slj
0.000000 0.000000 0.000000 srgb
n -1.900000 -3.900000 m -1.900000 -1.000000 l 5.000000 -1.000000 l 5.000000 -3.900000 l cp s
/Times-Roman ff 1.000000 scf sf
0.000000 0.000000 0.000000 srgb
(ORB) 0.100000 -2.800000 m gs 1 -1 sc sh gr
0.100000 slw
0 slc
[] 0 sd
0.000000 0.000000 0.000000 srgb
n -1.400000 -7.400000 m -5.500000 -6.200000 l s
0 slj
0.000000 0.000000 0.000000 srgb
n -2.097565 -6.935347 m -1.400000 -7.400000 l -2.238015 -7.415215 l f
/Courier ff 0.800000 scf sf
0.100000 slw
0 slc
[] 0 sd
0.000000 0.000000 0.000000 srgb
n -2.200000 -2.600000 m -5.500000 -2.700000 l s
0 slj
0.000000 0.000000 0.000000 srgb
n -3.007205 -2.374346 m -2.200000 -2.600000 l -2.992061 -2.874117 l f
/Courier ff 0.800000 scf sf
/Times-Roman ff 1.000000 scf sf
0.000000 0.000000 0.000000 srgb
(\(1\)) -4.100000 -7.200000 m gs 1 -1 sc sh gr
/Times-Roman ff 1.000000 scf sf
0.000000 0.000000 0.000000 srgb
(\(2\)) -4.500000 -3.100000 m gs 1 -1 sc sh gr
showpage
